{
    "data": [
        {
            "id": 34541863,
            "name": "\"A\" Cell Breeding Device",
            "type": "Spell Card",
            "frameType": "spell",
            "desc": "During each of your Standby Phases, put 1 A-Counter on 1 face-up monster your opponent controls.",
            "race": "Continuous",
            "archetype": "Alien",
            "card_sets": [
                {
                    "set_name": "Force of the Breaker",
                    "set_code": "FOTB-EN043",
                    "set_rarity": "Common",
                    "set_rarity_code": "(C)",
                    "set_price": "1.31"
                }
            ],
            "card_images": [
                {
                    "id": 34541863,
                    "image_url": "https://images.ygoprodeck.com/images/cards/34541863.jpg",
                    "image_url_small": "https://images.ygoprodeck.com/images/cards_small/34541863.jpg",
                    "image_url_cropped": "https://images.ygoprodeck.com/images/cards_cropped/34541863.jpg"
                }
            ],
            "card_prices": [
                {
                    "cardmarket_price": "0.10",
                    "tcgplayer_price": "0.17",
                    "ebay_price": "0.99",
                    "amazon_price": "24.45",
                    "coolstuffinc_price": "0.25"
                }
            ]
        }
    ],
    "meta": {
        "current_rows": 1,
        "total_rows": 12648,
        "rows_remaining": 12647,
        "total_pages": 12648,
        "pages_remaining": 12647,
        "next_page": "https://db.ygoprodeck.com/api/v7/cardinfo.php?num=1&offset=1",
        "next_page_offset": 1
    }
}